\relax 
\citation{armstrong-hopl}
\@writefile{toc}{\contentsline {section}{\numberline {1}Introduction}{1}}
\citation{erlang-academic}
\citation{erlang-rules}
\@writefile{toc}{\contentsline {section}{\numberline {2}Background}{2}}
\@writefile{toc}{\contentsline {subsection}{\numberline {2.1}Elixir semantics}{2}}
\@writefile{toc}{\contentsline {section}{\numberline {3}Solution}{5}}
\@writefile{toc}{\contentsline {subsection}{\numberline {3.1}Architecture}{5}}
\@writefile{lof}{\contentsline {figure}{\numberline {1}{\ignorespaces Overview of the debugger internal protocol.}}{6}}
\newlabel{protocol}{{1}{6}}
\@writefile{toc}{\contentsline {subsection}{\numberline {3.2}Implementation}{6}}
\@writefile{lot}{\contentsline {table}{\numberline {1}{\ignorespaces Generated variable names for escaped data literals}}{8}}
\newlabel{escaped_data}{{1}{8}}
\@writefile{toc}{\contentsline {subsection}{\numberline {3.3}Command Line Interface}{8}}
\@writefile{toc}{\contentsline {subsection}{\numberline {3.4}A Debug Session}{9}}
\citation{etos}
\citation{ghci-debug}
\citation{sml-debugger}
\citation{cml-checkpointing}
\@writefile{toc}{\contentsline {section}{\numberline {4}Experiments}{13}}
\@writefile{lot}{\contentsline {table}{\numberline {2}{\ignorespaces Experimental results}}{13}}
\newlabel{results}{{2}{13}}
\@writefile{toc}{\contentsline {section}{\numberline {5}Related works}{13}}
\bibstyle{sbc}
\bibdata{monografia}
\@writefile{toc}{\contentsline {section}{\numberline {6}Conclusion}{14}}
\@writefile{toc}{\contentsline {subsection}{\numberline {6.1}Future works and Limitations}{14}}
\@writefile{toc}{\contentsline {subsection}{\numberline {6.2}Licensing and distribution}{14}}
\bibcite{erlang-rules}{Armstrong 1995}
\bibcite{armstrong-hopl}{Armstrong 2007}
\bibcite{erlang-academic}{{Ericsson AB} 2013}
\bibcite{etos}{Feeley and Larose 1998}
\bibcite{ghci-debug}{Marlow et\nobreakspace  {}al. 2007}
\bibcite{sml-debugger}{Tolmach and Appel 1995}
\bibcite{cml-checkpointing}{Ziarek and Jagannathan 2010}
