This is BibTeX, Version 0.99d (TeX Live 2013)
Capacity: max_strings=35307, hash_size=35307, hash_prime=30011
The top-level auxiliary file: proposta.aux
A level-1 auxiliary file: capa.aux
A level-1 auxiliary file: introducao.aux
A level-1 auxiliary file: referecialTeorico.aux
A level-1 auxiliary file: metodologia.aux
A level-1 auxiliary file: resultados.aux
A level-1 auxiliary file: cronograma.aux
The style file: abbrv.bst
A level-1 auxiliary file: bibliografia.aux
Database file #1: bibliografia.bib
You've used 13 entries,
            2118 wiz_defined-function locations,
            587 strings with 5849 characters,
and the built_in function-call counts, 4256 in all, are:
= -- 435
> -- 144
< -- 4
+ -- 60
- -- 44
* -- 253
:= -- 675
add.period$ -- 42
call.type$ -- 13
change.case$ -- 59
chr.to.int$ -- 0
cite$ -- 13
duplicate$ -- 182
empty$ -- 381
format.name$ -- 44
if$ -- 939
int.to.chr$ -- 0
int.to.str$ -- 13
missing$ -- 13
newline$ -- 68
num.names$ -- 26
pop$ -- 78
preamble$ -- 1
purify$ -- 48
quote$ -- 0
skip$ -- 134
stack$ -- 0
substring$ -- 282
swap$ -- 46
text.length$ -- 4
text.prefix$ -- 0
top$ -- 0
type$ -- 48
warning$ -- 0
while$ -- 44
width$ -- 15
write$ -- 148
